%YAML 1.1
%TAG !u! tag:unity3d.com,2011:
--- !u!1045 &1
EditorBuildSettings:
  m_ObjectHideFlags: 0
  serializedVersion: 2
  m_Scenes:
  - enabled: 1
    path: Assets/Adventure 2D/Common/Scenes/SplashScream.unity
    guid: f27a126420b833a4baa863b35c4bfcba
  - enabled: 1
    path: Assets/Adventure 2D/Common/Scenes/LoadingScreen.unity
    guid: a8b41e7b1e79af749a696a8720b45bad
  - enabled: 1
    path: Assets/Scenes/MainScene.unity
    guid: 5f8372057a7269d42bc0ae566ad248e8
