%YAML 1.1
%TAG !u! tag:unity3d.com,2011:
--- !u!78 &1
TagManager:
  serializedVersion: 2
  tags:
  - LevelBounds
  - Music
  - Background
  layers:
  - Default
  - TransparentFX
  - Ignore Raycast
  - 
  - Water
  - UI
  - 
  - 
  - Platforms
  - Player
  - 
  - OneWayPlatforms
  - 
  - 
  - 
  - 
  - 
  - 
  - 
  - 
  - 
  - 
  - 
  - 
  - 
  - 
  - 
  - 
  - 
  - 
  - 
  - 
  m_SortingLayers:
  - name: Background
    uniqueID: 2582143429
    locked: 0
  - name: Default
    uniqueID: 0
    locked: 0
  - name: Platforms
    uniqueID: 1616694185
    locked: 0
  - name: Foreground
    uniqueID: 1866148985
    locked: 0
  - name: Between
    uniqueID: 967992817
    locked: 0
  - name: Player
    uniqueID: 156586731
    locked: 0
  - name: VisibleParticles
    uniqueID: 3653970985
    locked: 0
  - name: UI
    uniqueID: 3857116093
    locked: 0
